<svg width="20" height="20" viewBox="0 0 20 20" fill="none" xmlns="http://www.w3.org/2000/svg">
<path d="M15.2252 4.88379H14.1669C13.5919 4.88379 13.1252 5.35046 13.1252 5.92546C13.1252 6.50046 13.5919 6.96712 14.1669 6.96712H15.2252C15.8919 6.96712 16.4335 7.50879 16.4335 8.17546V15.3171C16.4335 15.9838 15.8919 16.5255 15.2252 16.5255H4.74186C4.0752 16.5255 3.53353 15.9838 3.53353 15.3171V8.17546C3.53353 7.50879 4.0752 6.96712 4.74186 6.96712H5.85019C6.42519 6.96712 6.89186 6.50046 6.89186 5.92546C6.89186 5.35046 6.42519 4.88379 5.85019 4.88379H4.74186C2.9252 4.88379 1.4502 6.35879 1.4502 8.17546V15.3171C1.4502 17.1338 2.9252 18.6088 4.74186 18.6088H15.2252C17.0419 18.6088 18.5169 17.1338 18.5169 15.3171V8.17546C18.5169 6.36712 17.0419 4.88379 15.2252 4.88379Z" fill="#333333"/>
<path d="M6.90892 11.7748L9.26725 14.1331C9.46725 14.3331 9.73392 14.4415 10.0006 14.4415C10.2673 14.4415 10.5339 14.3415 10.7339 14.1331L13.0923 11.7748C13.5006 11.3665 13.5006 10.7081 13.0923 10.2998C12.7006 9.90814 12.0173 9.90814 11.6173 10.2998L11.0423 10.8748V2.46647C11.0423 1.89147 10.5756 1.4248 10.0006 1.4248C9.42559 1.4248 8.95892 1.89147 8.95892 2.46647V10.8748L8.38392 10.2998C7.99225 9.90814 7.30059 9.90814 6.90892 10.2998C6.70892 10.4998 6.60059 10.7581 6.60059 11.0331C6.60059 11.3081 6.70892 11.5748 6.90892 11.7748Z" fill="#333333"/>
</svg>
