<svg width="86" height="32" viewBox="0 0 86 32" fill="none" xmlns="http://www.w3.org/2000/svg">
<mask id="mask0" mask-type="alpha" maskUnits="userSpaceOnUse" x="4" y="23" width="8" height="9">
<path fill-rule="evenodd" clip-rule="evenodd" d="M4.27563 23.8885H11.9793V31.6778H4.27563V23.8885Z" fill="white"/>
</mask>
<g mask="url(#mask0)">
<path fill-rule="evenodd" clip-rule="evenodd" d="M8.43992 23.901C6.06664 23.7119 4.10101 25.6993 4.28796 28.0989C4.43497 29.9868 5.94761 31.5163 7.81463 31.6654C10.1882 31.8546 12.1543 29.8668 11.967 27.4669C11.8197 25.5792 10.3071 24.0498 8.43992 23.901Z" fill="#00AC96"/>
</g>
<path fill-rule="evenodd" clip-rule="evenodd" d="M30.6998 5.20124C26.6699 -3.6666 14.3392 2.50744 18.5058 10.704L18.5039 10.7035C23.3576 22.8597 12.0877 24.328 8.87923 15.9847L8.87795 15.985C6.08568 8.73802 -3.12308 14.3224 1.32488 19.8286C4.22614 23.4202 11.0768 17.8183 14.1171 26.4314L14.1182 26.4311C16.0369 32.531 25.1014 29.0861 22.2527 23.2778L22.3155 23.3078C19.4724 18.2546 24.7518 14.3651 26.8955 13.657C30.2199 12.3468 31.9802 8.63331 30.6998 5.20124Z" fill="#00AC96"/>
<path fill-rule="evenodd" clip-rule="evenodd" d="M50.4033 23.8885C49.5813 23.8885 48.9148 23.2265 48.9148 22.4099V15.3911C48.9072 14.7662 48.6939 11.6056 45.2513 11.6056C41.6904 11.6056 41.5875 15.0038 41.5875 15.3911V22.4099C41.5875 23.2265 40.9213 23.8885 40.0993 23.8885C39.2772 23.8885 38.6108 23.2265 38.6108 22.4099V15.3911C38.6108 12.681 40.3794 8.64862 45.2513 8.64862C50.1232 8.64862 51.8915 12.681 51.8915 15.3911V22.4099C51.8915 23.2265 51.2253 23.8885 50.4033 23.8885Z" fill="#00AC96"/>
<mask id="mask1" mask-type="alpha" maskUnits="userSpaceOnUse" x="70" y="8" width="15" height="16">
<path fill-rule="evenodd" clip-rule="evenodd" d="M70.9824 8.69769H84.576V23.8884H70.9824V8.69769Z" fill="white"/>
</mask>
<g mask="url(#mask1)">
<path fill-rule="evenodd" clip-rule="evenodd" d="M72.5058 8.69769C73.3471 8.69769 74.0292 9.35749 74.0292 10.1715V17.1676C74.0371 17.7904 74.2554 20.9409 77.7791 20.9409C81.4238 20.9409 81.5291 17.5537 81.5291 17.1676V10.1715C81.5291 9.35749 82.2111 8.69769 83.0525 8.69769C83.8939 8.69769 84.576 9.35749 84.576 10.1715V17.1676C84.576 19.869 82.7658 23.8884 77.7791 23.8884C72.7925 23.8884 70.9824 19.869 70.9824 17.1676V10.1715C70.9824 9.35749 71.6644 8.69769 72.5058 8.69769Z" fill="#00AC96"/>
</g>
<path fill-rule="evenodd" clip-rule="evenodd" d="M66.1853 14.965C65.6142 12.789 63.6822 11.2553 61.4264 11.2553C59.1705 11.2553 57.2384 12.789 56.6674 14.965H66.1853ZM61.4265 23.8885C59.3561 23.8885 57.3587 23.0049 55.9462 21.4641C54.514 19.9018 53.8064 17.8621 53.9537 15.7209C54.2139 11.9365 57.2184 8.9025 60.9424 8.66404C61.1032 8.65363 61.266 8.64862 61.4263 8.64862C65.1966 8.64862 68.3913 11.5151 68.8577 15.3164C68.8982 15.6467 68.9179 15.9583 68.9179 16.2685C68.917 16.9915 68.3371 17.5719 67.6253 17.5719H56.6674C57.2385 19.7479 59.1705 21.2816 61.4265 21.2816C62.2428 21.2816 63.0526 21.0726 63.7679 20.6773C63.9548 20.5739 64.1658 20.5194 64.3781 20.5194C64.7202 20.5194 65.0419 20.6549 65.2841 20.9012C65.5725 21.1947 65.7042 21.598 65.6452 22.0081C65.5854 22.4244 65.3409 22.7782 64.9746 22.9792C63.8906 23.5741 62.6637 23.8885 61.4265 23.8885Z" fill="#00AC96"/>
</svg>
